<?xml version="1.0" encoding="UTF-8" standalone="no"?>
<svg
   xmlns:dc="http://purl.org/dc/elements/1.1/"
   xmlns:cc="http://creativecommons.org/ns#"
   xmlns:rdf="http://www.w3.org/1999/02/22-rdf-syntax-ns#"
   xmlns:svg="http://www.w3.org/2000/svg"
   xmlns="http://www.w3.org/2000/svg"
   xmlns:sodipodi="http://sodipodi.sourceforge.net/DTD/sodipodi-0.dtd"
   xmlns:inkscape="http://www.inkscape.org/namespaces/inkscape"
   version="1.1"
   id="svg28"
   xml:space="preserve"
   width="1056"
   height="816"
   viewBox="0 0 1056 816"
   sodipodi:docname="Marktabrechnung_Programmablauf_02.svg"
   inkscape:version="1.0.1 (3bc2e813f5, 2020-09-07)"><metadata
     id="metadata34"><rdf:RDF><cc:Work
         rdf:about=""><dc:format>image/svg+xml</dc:format><dc:type
           rdf:resource="http://purl.org/dc/dcmitype/StillImage" /><dc:title></dc:title></cc:Work></rdf:RDF></metadata><defs
     id="defs32"><clipPath
       clipPathUnits="userSpaceOnUse"
       id="clipPath52"><path
         d="M 1.1802e-5,0 H 792.00001 V 612 H 1.1802e-5 Z"
         clip-rule="evenodd"
         id="path50" /></clipPath><clipPath
       clipPathUnits="userSpaceOnUse"
       id="clipPath64"><path
         d="M 1.1802e-5,0 H 792.00001 V 612 H 1.1802e-5 Z"
         clip-rule="evenodd"
         id="path62" /></clipPath><clipPath
       clipPathUnits="userSpaceOnUse"
       id="clipPath76"><path
         d="M 1.1802e-5,0 H 792.00001 V 612 H 1.1802e-5 Z"
         clip-rule="evenodd"
         id="path74" /></clipPath><clipPath
       clipPathUnits="userSpaceOnUse"
       id="clipPath92"><path
         d="M 1.1802e-5,0 H 792.00001 V 612 H 1.1802e-5 Z"
         clip-rule="evenodd"
         id="path90" /></clipPath><clipPath
       clipPathUnits="userSpaceOnUse"
       id="clipPath104"><path
         d="M 1.1802e-5,0 H 792.00001 V 612 H 1.1802e-5 Z"
         clip-rule="evenodd"
         id="path102" /></clipPath><clipPath
       clipPathUnits="userSpaceOnUse"
       id="clipPath116"><path
         d="M 1.1802e-5,0 H 792.00001 V 612 H 1.1802e-5 Z"
         clip-rule="evenodd"
         id="path114" /></clipPath><clipPath
       clipPathUnits="userSpaceOnUse"
       id="clipPath128"><path
         d="M 1.1802e-5,0 H 792.00001 V 612 H 1.1802e-5 Z"
         clip-rule="evenodd"
         id="path126" /></clipPath><clipPath
       clipPathUnits="userSpaceOnUse"
       id="clipPath140"><path
         d="M 1.1802e-5,0 H 792.00001 V 612 H 1.1802e-5 Z"
         clip-rule="evenodd"
         id="path138" /></clipPath><clipPath
       clipPathUnits="userSpaceOnUse"
       id="clipPath152"><path
         d="M 1.1802e-5,0 H 792.00001 V 612 H 1.1802e-5 Z"
         clip-rule="evenodd"
         id="path150" /></clipPath><clipPath
       clipPathUnits="userSpaceOnUse"
       id="clipPath176"><path
         d="M 1.1802e-5,0 H 792.00001 V 612 H 1.1802e-5 Z"
         clip-rule="evenodd"
         id="path174" /></clipPath><clipPath
       clipPathUnits="userSpaceOnUse"
       id="clipPath188"><path
         d="M 1.1802e-5,0 H 792.00001 V 612 H 1.1802e-5 Z"
         clip-rule="evenodd"
         id="path186" /></clipPath><clipPath
       clipPathUnits="userSpaceOnUse"
       id="clipPath200"><path
         d="M 1.1802e-5,0 H 792.00001 V 612 H 1.1802e-5 Z"
         clip-rule="evenodd"
         id="path198" /></clipPath><linearGradient
       x1="86.684998"
       y1="301.59"
       x2="129.31"
       y2="265.82001"
       gradientUnits="userSpaceOnUse"
       spreadMethod="pad"
       id="linearGradient222"><stop
         style="stop-opacity:1;stop-color:#dcdcdc"
         offset="0"
         id="stop218" /><stop
         style="stop-opacity:1;stop-color:#787878"
         offset="1"
         id="stop220" /></linearGradient><clipPath
       clipPathUnits="userSpaceOnUse"
       id="clipPath232"><path
         d="M 1.1802e-5,0 H 792.00001 V 612 H 1.1802e-5 Z"
         clip-rule="evenodd"
         id="path230" /></clipPath><clipPath
       clipPathUnits="userSpaceOnUse"
       id="clipPath248"><path
         d="M 1.1802e-5,0 H 792.00001 V 612 H 1.1802e-5 Z"
         clip-rule="evenodd"
         id="path246" /></clipPath><clipPath
       clipPathUnits="userSpaceOnUse"
       id="clipPath260"><path
         d="M 1.1802e-5,0 H 792.00001 V 612 H 1.1802e-5 Z"
         clip-rule="evenodd"
         id="path258" /></clipPath><clipPath
       clipPathUnits="userSpaceOnUse"
       id="clipPath272"><path
         d="M 1.1802e-5,0 H 792.00001 V 612 H 1.1802e-5 Z"
         clip-rule="evenodd"
         id="path270" /></clipPath><clipPath
       clipPathUnits="userSpaceOnUse"
       id="clipPath288"><path
         d="M 1.1802e-5,0 H 792.00001 V 612 H 1.1802e-5 Z"
         clip-rule="evenodd"
         id="path286" /></clipPath><clipPath
       clipPathUnits="userSpaceOnUse"
       id="clipPath300"><path
         d="M 1.1802e-5,0 H 792.00001 V 612 H 1.1802e-5 Z"
         clip-rule="evenodd"
         id="path298" /></clipPath><clipPath
       clipPathUnits="userSpaceOnUse"
       id="clipPath312"><path
         d="M 1.1802e-5,0 H 792.00001 V 612 H 1.1802e-5 Z"
         clip-rule="evenodd"
         id="path310" /></clipPath><clipPath
       clipPathUnits="userSpaceOnUse"
       id="clipPath324"><path
         d="M 1.1802e-5,0 H 792.00001 V 612 H 1.1802e-5 Z"
         clip-rule="evenodd"
         id="path322" /></clipPath><clipPath
       clipPathUnits="userSpaceOnUse"
       id="clipPath350"><path
         d="M 1.1802e-5,0 H 792.00001 V 612 H 1.1802e-5 Z"
         clip-rule="evenodd"
         id="path348" /></clipPath><clipPath
       clipPathUnits="userSpaceOnUse"
       id="clipPath372"><path
         d="M 1.1802e-5,0 H 792.00001 V 612 H 1.1802e-5 Z"
         clip-rule="evenodd"
         id="path370" /></clipPath><clipPath
       clipPathUnits="userSpaceOnUse"
       id="clipPath394"><path
         d="M 1.1802e-5,0 H 792.00001 V 612 H 1.1802e-5 Z"
         clip-rule="evenodd"
         id="path392" /></clipPath><clipPath
       clipPathUnits="userSpaceOnUse"
       id="clipPath412"><path
         d="M 1.1802e-5,0 H 792.00001 V 612 H 1.1802e-5 Z"
         clip-rule="evenodd"
         id="path410" /></clipPath><clipPath
       clipPathUnits="userSpaceOnUse"
       id="clipPath428"><path
         d="M 1.1802e-5,0 H 792.00001 V 612 H 1.1802e-5 Z"
         clip-rule="evenodd"
         id="path426" /></clipPath><clipPath
       clipPathUnits="userSpaceOnUse"
       id="clipPath440"><path
         d="M 1.1802e-5,0 H 792.00001 V 612 H 1.1802e-5 Z"
         clip-rule="evenodd"
         id="path438" /></clipPath><clipPath
       clipPathUnits="userSpaceOnUse"
       id="clipPath452"><path
         d="M 1.1802e-5,0 H 792.00001 V 612 H 1.1802e-5 Z"
         clip-rule="evenodd"
         id="path450" /></clipPath><clipPath
       clipPathUnits="userSpaceOnUse"
       id="clipPath464"><path
         d="M 1.1802e-5,0 H 792.00001 V 612 H 1.1802e-5 Z"
         clip-rule="evenodd"
         id="path462" /></clipPath><clipPath
       clipPathUnits="userSpaceOnUse"
       id="clipPath480"><path
         d="M 1.1802e-5,0 H 792.00001 V 612 H 1.1802e-5 Z"
         clip-rule="evenodd"
         id="path478" /></clipPath><clipPath
       clipPathUnits="userSpaceOnUse"
       id="clipPath492"><path
         d="M 1.1802e-5,0 H 792.00001 V 612 H 1.1802e-5 Z"
         clip-rule="evenodd"
         id="path490" /></clipPath><clipPath
       clipPathUnits="userSpaceOnUse"
       id="clipPath504"><path
         d="M 1.1802e-5,0 H 792.00001 V 612 H 1.1802e-5 Z"
         clip-rule="evenodd"
         id="path502" /></clipPath><clipPath
       clipPathUnits="userSpaceOnUse"
       id="clipPath516"><path
         d="M 1.1802e-5,0 H 792.00001 V 612 H 1.1802e-5 Z"
         clip-rule="evenodd"
         id="path514" /></clipPath><clipPath
       clipPathUnits="userSpaceOnUse"
       id="clipPath542"><path
         d="M 1.1802e-5,0 H 792.00001 V 612 H 1.1802e-5 Z"
         clip-rule="evenodd"
         id="path540" /></clipPath><clipPath
       clipPathUnits="userSpaceOnUse"
       id="clipPath568"><path
         d="M 1.1802e-5,0 H 792.00001 V 612 H 1.1802e-5 Z"
         clip-rule="evenodd"
         id="path566" /></clipPath><clipPath
       clipPathUnits="userSpaceOnUse"
       id="clipPath586"><path
         d="M 1.1802e-5,0 H 792.00001 V 612 H 1.1802e-5 Z"
         clip-rule="evenodd"
         id="path584" /></clipPath><clipPath
       clipPathUnits="userSpaceOnUse"
       id="clipPath602"><path
         d="M 1.1802e-5,0 H 792.00001 V 612 H 1.1802e-5 Z"
         clip-rule="evenodd"
         id="path600" /></clipPath><clipPath
       clipPathUnits="userSpaceOnUse"
       id="clipPath614"><path
         d="M 1.1802e-5,0 H 792.00001 V 612 H 1.1802e-5 Z"
         clip-rule="evenodd"
         id="path612" /></clipPath><clipPath
       clipPathUnits="userSpaceOnUse"
       id="clipPath626"><path
         d="M 1.1802e-5,0 H 792.00001 V 612 H 1.1802e-5 Z"
         clip-rule="evenodd"
         id="path624" /></clipPath><clipPath
       clipPathUnits="userSpaceOnUse"
       id="clipPath638"><path
         d="M 1.1802e-5,0 H 792.00001 V 612 H 1.1802e-5 Z"
         clip-rule="evenodd"
         id="path636" /></clipPath><clipPath
       clipPathUnits="userSpaceOnUse"
       id="clipPath650"><path
         d="M 1.1802e-5,0 H 792.00001 V 612 H 1.1802e-5 Z"
         clip-rule="evenodd"
         id="path648" /></clipPath><clipPath
       clipPathUnits="userSpaceOnUse"
       id="clipPath672"><path
         d="M 1.1802e-5,0 H 792.00001 V 612 H 1.1802e-5 Z"
         clip-rule="evenodd"
         id="path670" /></clipPath><clipPath
       clipPathUnits="userSpaceOnUse"
       id="clipPath694"><path
         d="M 1.1802e-5,0 H 792.00001 V 612 H 1.1802e-5 Z"
         clip-rule="evenodd"
         id="path692" /></clipPath><clipPath
       clipPathUnits="userSpaceOnUse"
       id="clipPath712"><path
         d="M 1.1802e-5,0 H 792.00001 V 612 H 1.1802e-5 Z"
         clip-rule="evenodd"
         id="path710" /></clipPath><clipPath
       clipPathUnits="userSpaceOnUse"
       id="clipPath724"><path
         d="M 1.1802e-5,0 H 792.00001 V 612 H 1.1802e-5 Z"
         clip-rule="evenodd"
         id="path722" /></clipPath><clipPath
       clipPathUnits="userSpaceOnUse"
       id="clipPath736"><path
         d="M 1.1802e-5,0 H 792.00001 V 612 H 1.1802e-5 Z"
         clip-rule="evenodd"
         id="path734" /></clipPath><clipPath
       clipPathUnits="userSpaceOnUse"
       id="clipPath748"><path
         d="M 1.1802e-5,0 H 792.00001 V 612 H 1.1802e-5 Z"
         clip-rule="evenodd"
         id="path746" /></clipPath><clipPath
       clipPathUnits="userSpaceOnUse"
       id="clipPath760"><path
         d="M 1.1802e-5,0 H 792.00001 V 612 H 1.1802e-5 Z"
         clip-rule="evenodd"
         id="path758" /></clipPath><clipPath
       clipPathUnits="userSpaceOnUse"
       id="clipPath772"><path
         d="M 1.1802e-5,0 H 792.00001 V 612 H 1.1802e-5 Z"
         clip-rule="evenodd"
         id="path770" /></clipPath></defs><sodipodi:namedview
     pagecolor="#ffffff"
     bordercolor="#666666"
     borderopacity="1"
     objecttolerance="10"
     gridtolerance="10"
     guidetolerance="10"
     inkscape:pageopacity="0"
     inkscape:pageshadow="2"
     inkscape:window-width="1199"
     inkscape:window-height="974"
     id="namedview30"
     showgrid="false"
     inkscape:zoom="0.75735294"
     inkscape:cx="528"
     inkscape:cy="408"
     inkscape:window-x="0"
     inkscape:window-y="0"
     inkscape:window-maximized="0"
     inkscape:current-layer="g36" /><g
     id="g36"
     inkscape:groupmode="layer"
     inkscape:label="Marktabrechnung_Programmablauf_02"
     transform="matrix(1.3333333,0,0,-1.3333333,0,816)"><path
       d="m 225,526.7 c 0,9.94 -8.06,18 -18,18 -9.94,0 -18,-8.06 -18,-18 0,-9.94 8.06,-18 18,-18 9.94,0 18,8.06 18,18 z"
       style="fill:#f2f2f2;fill-opacity:1;fill-rule:evenodd;stroke:none"
       id="path38" /><path
       d="m 225,526.7 c 0,9.94 -8.06,18 -18,18 -9.94,0 -18,-8.06 -18,-18 0,-9.94 8.06,-18 18,-18 9.94,0 18,8.06 18,18 z"
       style="fill:none;stroke:#000000;stroke-width:1.25;stroke-linecap:butt;stroke-linejoin:miter;stroke-miterlimit:10;stroke-dasharray:none;stroke-opacity:1"
       id="path40" /><path
       d="m 153,457.55 h 108 c 4.97,0 9,4.03 9,9 v 18 c 0,4.97 -4.03,9 -9,9 H 153 c -4.97,0 -9,-4.03 -9,-9 v -18 c 0,-4.97 4.03,-9 9,-9 z"
       style="fill:#f2f2f2;fill-opacity:1;fill-rule:evenodd;stroke:none"
       id="path42" /><path
       d="m 153,457.55 h 108 c 4.97,0 9,4.03 9,9 v 18 c 0,4.97 -4.03,9 -9,9 H 153 c -4.97,0 -9,-4.03 -9,-9 v -18 c 0,-4.97 4.03,-9 9,-9 z"
       style="fill:none;stroke:#000000;stroke-width:1.25;stroke-linecap:butt;stroke-linejoin:miter;stroke-miterlimit:10;stroke-dasharray:none;stroke-opacity:1"
       id="path44" /><g
       id="g46"><g
         id="g48"
         clip-path="url(#clipPath52)"><text
           transform="matrix(1,0,0,-1,173.15,471.83)"
           style="font-variant:normal;font-weight:normal;font-size:12.025px;font-family:Calibri;-inkscape-font-specification:Calibri;writing-mode:lr-tb;fill:#000000;fill-opacity:1;fill-rule:nonzero;stroke:none"
           id="text56"><tspan
             x="0"
             y="0"
             id="tspan54">0</tspan></text></g></g><g
       id="g58"><g
         id="g60"
         clip-path="url(#clipPath64)"><text
           transform="matrix(1,0,0,-1,179.25,471.83)"
           style="font-variant:normal;font-weight:normal;font-size:12.025px;font-family:Calibri;-inkscape-font-specification:Calibri;writing-mode:lr-tb;fill:#000000;fill-opacity:1;fill-rule:nonzero;stroke:none"
           id="text68"><tspan
             x="0 3"
             y="0"
             sodipodi:role="line"
             id="tspan66">. </tspan></text></g></g><g
       id="g70"><g
         id="g72"
         clip-path="url(#clipPath76)"><text
           transform="matrix(1,0,0,-1,185,471.83)"
           style="font-variant:normal;font-weight:normal;font-size:12.025px;font-family:Calibri;-inkscape-font-specification:Calibri;writing-mode:lr-tb;fill:#000000;fill-opacity:1;fill-rule:nonzero;stroke:none"
           id="text80"><tspan
             x="0 7.1909499 13.191425 22.7994 28.787849 31.782076 37.782551 44.37225 50.372726"
             y="0"
             sodipodi:role="line"
             id="tspan78">Anmeldung</tspan></text></g></g><path
       d="m 153,393.35 h 108 c 4.97,0 9,4.03 9,9 v 18.8 c 0,4.97 -4.03,9 -9,9 H 153 c -4.97,0 -9,-4.03 -9,-9 v -18.8 c 0,-4.97 4.03,-9 9,-9 z"
       style="fill:#f2f2f2;fill-opacity:1;fill-rule:evenodd;stroke:none"
       id="path82" /><path
       d="m 153,393.35 h 108 c 4.97,0 9,4.03 9,9 v 18.8 c 0,4.97 -4.03,9 -9,9 H 153 c -4.97,0 -9,-4.03 -9,-9 v -18.8 c 0,-4.97 4.03,-9 9,-9 z"
       style="fill:none;stroke:#000000;stroke-width:1.25;stroke-linecap:butt;stroke-linejoin:miter;stroke-miterlimit:10;stroke-dasharray:none;stroke-opacity:1"
       id="path84" /><g
       id="g86"><g
         id="g88"
         clip-path="url(#clipPath92)"><text
           transform="matrix(1,0,0,-1,180.55,415.15)"
           style="font-variant:normal;font-weight:normal;font-size:12px;font-family:Calibri;-inkscape-font-specification:Calibri;writing-mode:lr-tb;fill:#000000;fill-opacity:1;fill-rule:nonzero;stroke:none"
           id="text96"><tspan
             x="0"
             y="0"
             id="tspan94">1</tspan></text></g></g><g
       id="g98"><g
         id="g100"
         clip-path="url(#clipPath104)"><text
           transform="matrix(1,0,0,-1,186.65,415.15)"
           style="font-variant:normal;font-weight:normal;font-size:12px;font-family:Calibri;-inkscape-font-specification:Calibri;writing-mode:lr-tb;fill:#000000;fill-opacity:1;fill-rule:nonzero;stroke:none"
           id="text108"><tspan
             x="0 3"
             y="0"
             sodipodi:role="line"
             id="tspan106">. </tspan></text></g></g><g
       id="g110"><g
         id="g112"
         clip-path="url(#clipPath116)"><text
           transform="matrix(1,0,0,-1,192.4,415.15)"
           style="font-variant:normal;font-weight:normal;font-size:12px;font-family:Calibri;-inkscape-font-specification:Calibri;writing-mode:lr-tb;fill:#000000;fill-opacity:1;fill-rule:nonzero;stroke:none"
           id="text120"><tspan
             x="0 7.1880002 13.188 17.976 26.375999 32.363998 38.363998 41.352001"
             y="0"
             sodipodi:role="line"
             id="tspan118">Auswahl </tspan></text></g></g><g
       id="g122"><g
         id="g124"
         clip-path="url(#clipPath128)"><text
           transform="matrix(1,0,0,-1,168.97,400.75)"
           style="font-variant:normal;font-weight:normal;font-size:12.025px;font-family:Calibri;-inkscape-font-specification:Calibri;writing-mode:lr-tb;fill:#000000;fill-opacity:1;fill-rule:nonzero;stroke:none"
           id="text132"><tspan
             x="0 10.1972 16.18565 20.382376 25.781601 29.377075"
             y="0"
             sodipodi:role="line"
             id="tspan130">Markt </tspan></text></g></g><g
       id="g134"><g
         id="g136"
         clip-path="url(#clipPath140)"><text
           transform="matrix(1,0,0,-1,201.38,400.75)"
           style="font-variant:normal;font-weight:normal;font-size:12.025px;font-family:Calibri;-inkscape-font-specification:Calibri;writing-mode:lr-tb;fill:#000000;fill-opacity:1;fill-rule:nonzero;stroke:none"
           id="text144"><tspan
             x="0 8.4000502"
             y="0"
             sodipodi:role="line"
             id="tspan142">&amp; </tspan></text></g></g><g
       id="g146"><g
         id="g148"
         clip-path="url(#clipPath152)"><text
           transform="matrix(1,0,0,-1,212.27,400.75)"
           style="font-variant:normal;font-weight:normal;font-size:12.025px;font-family:Calibri;-inkscape-font-specification:Calibri;writing-mode:lr-tb;fill:#000000;fill-opacity:1;fill-rule:nonzero;stroke:none"
           id="text156"><tspan
             x="0 7.2029748 13.191425 17.376125 23.3766"
             y="0"
             sodipodi:role="line"
             id="tspan154">Datum</tspan></text></g></g><path
       d="M 207,508.7 V 497.15"
       style="fill:none;stroke:#000000;stroke-width:1.25;stroke-linecap:round;stroke-linejoin:round;stroke-miterlimit:10;stroke-dasharray:none;stroke-opacity:1"
       id="path158" /><path
       d="m 211.49,498.04 -4.49,-4.49 -4.49,4.49 z"
       style="fill:#000000;fill-opacity:1;fill-rule:evenodd;stroke:none"
       id="path160" /><path
       d="M 207,457.55 V 433.74"
       style="fill:none;stroke:#000000;stroke-width:1.25;stroke-linecap:round;stroke-linejoin:round;stroke-miterlimit:10;stroke-dasharray:none;stroke-opacity:1"
       id="path162" /><path
       d="m 211.49,434.64 -4.49,-4.49 -4.49,4.49 z"
       style="fill:#000000;fill-opacity:1;fill-rule:evenodd;stroke:none"
       id="path164" /><path
       d="m 153,329.95 h 108 c 4.97,0 9,4.03 9,9 v 18 c 0,4.97 -4.03,9 -9,9 H 153 c -4.97,0 -9,-4.03 -9,-9 v -18 c 0,-4.97 4.03,-9 9,-9 z"
       style="fill:#f2f2f2;fill-opacity:1;fill-rule:evenodd;stroke:none"
       id="path166" /><path
       d="m 153,329.95 h 108 c 4.97,0 9,4.03 9,9 v 18 c 0,4.97 -4.03,9 -9,9 H 153 c -4.97,0 -9,-4.03 -9,-9 v -18 c 0,-4.97 4.03,-9 9,-9 z"
       style="fill:none;stroke:#000000;stroke-width:1.25;stroke-linecap:butt;stroke-linejoin:miter;stroke-miterlimit:2;stroke-dasharray:none;stroke-opacity:1"
       id="path168" /><g
       id="g170"><g
         id="g172"
         clip-path="url(#clipPath176)"><text
           transform="matrix(1,0,0,-1,148.98,344.08)"
           style="font-variant:normal;font-weight:normal;font-size:12px;font-family:Calibri;-inkscape-font-specification:Calibri;writing-mode:lr-tb;fill:#000000;fill-opacity:1;fill-rule:nonzero;stroke:none"
           id="text180"><tspan
             x="0"
             y="0"
             id="tspan178">2</tspan></text></g></g><g
       id="g182"><g
         id="g184"
         clip-path="url(#clipPath188)"><text
           transform="matrix(1,0,0,-1,155.05,344.08)"
           style="font-variant:normal;font-weight:normal;font-size:12px;font-family:Calibri;-inkscape-font-specification:Calibri;writing-mode:lr-tb;fill:#000000;fill-opacity:1;fill-rule:nonzero;stroke:none"
           id="text192"><tspan
             x="0 3"
             y="0"
             sodipodi:role="line"
             id="tspan190">. </tspan></text></g></g><g
       id="g194"><g
         id="g196"
         clip-path="url(#clipPath200)"><text
           transform="matrix(1,0,0,-1,160.8,344.08)"
           style="font-variant:normal;font-weight:normal;font-size:12px;font-family:Calibri;-inkscape-font-specification:Calibri;writing-mode:lr-tb;fill:#000000;fill-opacity:1;fill-rule:nonzero;stroke:none"
           id="text204"><tspan
             x="0 7.7880001 13.788 19.764 23.976 28.764 31.752001 36.551998 43.139999 46.740002 49.728001 56.316002 62.316002 67.704002 73.704002 80.292 86.292 92.279999 98.255997"
             y="0"
             sodipodi:role="line"
             id="tspan202">Übersicht Buchungen</tspan></text></g></g><path
       d="M 207,393.35 V 369.54"
       style="fill:none;stroke:#000000;stroke-width:1.25;stroke-linecap:round;stroke-linejoin:round;stroke-miterlimit:2;stroke-dasharray:none;stroke-opacity:1"
       id="path206" /><path
       d="m 211.49,370.44 -4.49,-4.49 -4.49,4.49 z"
       style="fill:#000000;fill-opacity:1;fill-rule:evenodd;stroke:none"
       id="path208" /><path
       d="m 207,265.7 18,18 -18,18 -18,-18 z"
       style="fill:#f2f2f2;fill-opacity:1;fill-rule:evenodd;stroke:none"
       id="path210" /><path
       d="m 207,265.7 18,18 -18,18 -18,-18 z"
       style="fill:none;stroke:#000000;stroke-width:1.25;stroke-linecap:butt;stroke-linejoin:miter;stroke-miterlimit:2;stroke-dasharray:none;stroke-opacity:1"
       id="path212" /><path
       d="m 122.4,283.7 c 0,7.95 -6.45,14.4 -14.4,14.4 -7.95,0 -14.4,-6.45 -14.4,-14.4 0,-7.95 6.45,-14.4 14.4,-14.4 7.95,0 14.4,6.45 14.4,14.4 z"
       style="fill:#f4f4f4;fill-opacity:1;fill-rule:evenodd;stroke:none"
       id="path214" /><g
       id="g216"><path
         d="m 125.13,283.79 v -0.18 l -0.38,3.64 0.04,-0.17 -1.05,3.37 0.07,-0.15 -1.65,3.03 0.09,-0.13 -2.18,2.66 0.12,-0.12 -2.66,2.21 0.14,-0.1 -3.07,1.65 0.15,-0.06 -3.37,1.05 0.17,-0.03 -3.64,0.37 h 0.18 l -3.64,-0.37 0.17,0.03 -3.37,-1.05 0.16,0.07 -3.042,-1.65 0.141,0.09 -2.662,-2.21 0.113,0.11 -2.212,-2.66 0.096,0.14 -1.65,-3.03 0.067,0.15 -1.05,-3.37 0.034,0.17 -0.375,-3.64 v 0.18 l 0.375,-3.64 -0.034,0.17 1.05,-3.37 -0.065,0.15 1.65,-3.07 -0.098,0.14 2.212,-2.66 -0.119,0.12 2.663,-2.18 -0.136,0.09 3.042,-1.65 -0.16,0.07 3.37,-1.05 -0.17,0.04 3.64,-0.38 h -0.18 l 3.64,0.38 -0.17,-0.04 3.37,1.05 -0.15,-0.06 3.07,1.65 -0.14,-0.1 2.67,2.18 -0.13,-0.13 2.18,2.67 -0.1,-0.14 1.65,3.07 -0.06,-0.15 1.05,3.37 -0.04,-0.17 z m 1.36,-3.9 -1.1,-3.54 -1.73,-3.22 -2.29,-2.8 -2.79,-2.29 -3.23,-1.72 -3.54,-1.11 -3.81,-0.39 -3.81,0.39 -3.54,1.11 -3.19,1.73 -2.791,2.28 -2.323,2.79 -1.732,3.23 -1.1,3.54 -0.394,3.81 0.394,3.82 1.101,3.54 1.732,3.18 2.319,2.79 2.791,2.32 3.193,1.74 3.54,1.1 3.81,0.39 3.81,-0.39 3.54,-1.1 3.23,-1.73 2.79,-2.33 2.28,-2.79 1.73,-3.18 1.11,-3.54 0.39,-3.82 z m -4.96,3.9 v -0.18 l -0.3,2.89 0.03,-0.17 -0.82,2.7 0.06,-0.15 -1.31,2.47 0.1,-0.15 -1.76,2.1 0.11,-0.11 -2.13,1.76 0.13,-0.09 -2.44,1.35 0.17,-0.07 -2.7,0.82 0.17,-0.03 -2.93,0.3 h 0.18 l -2.89,-0.3 0.17,0.03 -2.7,-0.82 0.16,0.07 -2.47,-1.35 0.14,0.1 -2.1,-1.77 0.108,0.11 -1.763,-2.1 0.098,0.14 -1.35,-2.47 0.069,0.16 -0.825,-2.7 0.033,0.17 -0.3,-2.89 v 0.18 l 0.3,-2.92 -0.033,0.16 0.825,-2.7 -0.072,0.17 1.35,-2.44 -0.09,0.14 1.763,-2.14 -0.113,0.11 2.1,-1.76 -0.15,0.1 2.47,-1.31 -0.15,0.06 2.7,-0.82 -0.17,0.03 2.89,-0.3 h -0.18 l 2.93,0.3 -0.17,-0.03 2.7,0.82 -0.16,-0.06 2.44,1.31 -0.14,-0.1 2.13,1.77 -0.12,-0.12 1.77,2.14 -0.1,-0.15 1.31,2.44 -0.06,-0.16 0.82,2.7 -0.03,-0.16 z m 1.43,-3.19 -0.87,-2.86 -1.4,-2.59 -1.87,-2.27 -2.27,-1.87 -2.59,-1.4 -2.86,-0.87 -3.1,-0.32 -3.06,0.32 -2.86,0.87 -2.634,1.4 -2.233,1.87 -1.864,2.26 -1.434,2.59 -0.877,2.87 -0.318,3.1 0.318,3.06 0.876,2.87 1.435,2.63 1.867,2.22 2.226,1.87 2.628,1.44 2.87,0.87 3.06,0.32 3.1,-0.32 2.87,-0.87 2.59,-1.44 2.26,-1.86 1.87,-2.23 1.4,-2.64 0.87,-2.86 0.32,-3.06 z"
         style="fill:url(#linearGradient222);fill-opacity:1;fill-rule:nonzero;stroke:none"
         id="path224" /></g><g
       id="g226"><g
         id="g228"
         clip-path="url(#clipPath232)"><text
           transform="matrix(1,0,0,-1,91.225,250.55)"
           style="font-variant:normal;font-weight:normal;font-size:12.025px;font-family:Calibri;-inkscape-font-specification:Calibri;writing-mode:lr-tb;fill:#696969;fill-opacity:1;fill-rule:nonzero;stroke:none"
           id="text236"><tspan
             x="0 4.7979751 11.387675 16.7869 23.3766 29.377075"
             y="0"
             sodipodi:role="line"
             id="tspan234">Logout</tspan></text></g></g><path
       d="m 153,196.75 h 108 c 4.97,0 9,4.03 9,9 v 18 c 0,4.98 -4.03,9 -9,9 H 153 c -4.97,0 -9,-4.02 -9,-9 v -18 c 0,-4.97 4.03,-9 9,-9 z"
       style="fill:#f2f2f2;fill-opacity:1;fill-rule:evenodd;stroke:none"
       id="path238" /><path
       d="m 153,196.75 h 108 c 4.97,0 9,4.03 9,9 v 18 c 0,4.98 -4.03,9 -9,9 H 153 c -4.97,0 -9,-4.02 -9,-9 v -18 c 0,-4.97 4.03,-9 9,-9 z"
       style="fill:none;stroke:#000000;stroke-width:1.25;stroke-linecap:butt;stroke-linejoin:miter;stroke-miterlimit:2;stroke-dasharray:none;stroke-opacity:1"
       id="path240" /><g
       id="g242"><g
         id="g244"
         clip-path="url(#clipPath248)"><text
           transform="matrix(1,0,0,-1,157.63,210.77)"
           style="font-variant:normal;font-weight:normal;font-size:12.025px;font-family:Calibri;-inkscape-font-specification:Calibri;writing-mode:lr-tb;fill:#000000;fill-opacity:1;fill-rule:nonzero;stroke:none"
           id="text252"><tspan
             x="0"
             y="0"
             id="tspan250">3</tspan></text></g></g><g
       id="g254"><g
         id="g256"
         clip-path="url(#clipPath260)"><text
           transform="matrix(1,0,0,-1,163.73,210.77)"
           style="font-variant:normal;font-weight:normal;font-size:12.025px;font-family:Calibri;-inkscape-font-specification:Calibri;writing-mode:lr-tb;fill:#000000;fill-opacity:1;fill-rule:nonzero;stroke:none"
           id="text264"><tspan
             x="0 3"
             y="0"
             sodipodi:role="line"
             id="tspan262">. </tspan></text></g></g><g
       id="g266"><g
         id="g268"
         clip-path="url(#clipPath272)"><text
           transform="matrix(1,0,0,-1,169.47,210.77)"
           style="font-variant:normal;font-weight:normal;font-size:12.025px;font-family:Calibri;-inkscape-font-specification:Calibri;writing-mode:lr-tb;fill:#000000;fill-opacity:1;fill-rule:nonzero;stroke:none"
           id="text276"><tspan
             x="0 7.7922001 13.792675 19.781124 23.97785 28.775826 31.758024 36.556 43.145699 46.741177 49.723373 55.72385 62.313549 68.314026 74.903725 80.892174"
             y="0"
             sodipodi:role="line"
             id="tspan274">Übersicht Kunden</tspan></text></g></g><path
       d="m 153,67.701 h 108 c 4.97,0 9,4.029 9,9 v 18 c 0,4.971 -4.03,8.999 -9,8.999 H 153 c -4.97,0 -9,-4.028 -9,-8.999 v -18 c 0,-4.971 4.03,-9 9,-9 z"
       style="fill:#f2f2f2;fill-opacity:1;fill-rule:evenodd;stroke:none"
       id="path278" /><path
       d="m 153,67.701 h 108 c 4.97,0 9,4.029 9,9 v 18 c 0,4.971 -4.03,8.999 -9,8.999 H 153 c -4.97,0 -9,-4.028 -9,-8.999 v -18 c 0,-4.971 4.03,-9 9,-9 z"
       style="fill:none;stroke:#000000;stroke-width:1.25;stroke-linecap:butt;stroke-linejoin:miter;stroke-miterlimit:2;stroke-dasharray:none;stroke-opacity:1"
       id="path280" /><g
       id="g282"><g
         id="g284"
         clip-path="url(#clipPath288)"><text
           transform="matrix(1,0,0,-1,157.7,81.575)"
           style="font-variant:normal;font-weight:normal;font-size:12px;font-family:Calibri;-inkscape-font-specification:Calibri;writing-mode:lr-tb;fill:#000000;fill-opacity:1;fill-rule:nonzero;stroke:none"
           id="text292"><tspan
             x="0"
             y="0"
             id="tspan290">3</tspan></text></g></g><g
       id="g294"><g
         id="g296"
         clip-path="url(#clipPath300)"><text
           transform="matrix(1,0,0,-1,163.8,81.575)"
           style="font-variant:normal;font-weight:normal;font-size:12px;font-family:Calibri;-inkscape-font-specification:Calibri;writing-mode:lr-tb;fill:#000000;fill-opacity:1;fill-rule:nonzero;stroke:none"
           id="text304"><tspan
             x="0"
             y="0"
             id="tspan302">.</tspan></text></g></g><g
       id="g306"><g
         id="g308"
         clip-path="url(#clipPath312)"><text
           transform="matrix(1,0,0,-1,166.83,81.575)"
           style="font-variant:normal;font-weight:normal;font-size:12px;font-family:Calibri;-inkscape-font-specification:Calibri;writing-mode:lr-tb;fill:#000000;fill-opacity:1;fill-rule:nonzero;stroke:none"
           id="text316"><tspan
             x="0 6"
             y="0"
             sodipodi:role="line"
             id="tspan314">1 </tspan></text></g></g><g
       id="g318"><g
         id="g320"
         clip-path="url(#clipPath324)"><text
           transform="matrix(1,0,0,-1,175.63,81.575)"
           style="font-variant:normal;font-weight:normal;font-size:12px;font-family:Calibri;-inkscape-font-specification:Calibri;writing-mode:lr-tb;fill:#000000;fill-opacity:1;fill-rule:nonzero;stroke:none"
           id="text328"><tspan
             x="0 5.9879999 10.176 13.788 19.188 23.976 28.764 35.352001 41.352001 46.751999 49.740002 55.740002 62.327999 68.328003 74.916"
             y="0"
             sodipodi:role="line"
             id="tspan326">Erfassung Kunde</tspan></text></g></g><path
       d="m 207,133.75 18,18 -18,18 -18,-18 z"
       style="fill:#f2f2f2;fill-opacity:1;fill-rule:evenodd;stroke:none"
       id="path330" /><path
       d="m 207,133.75 18,18 -18,18 -18,-18 z"
       style="fill:none;stroke:#000000;stroke-width:1.25;stroke-linecap:butt;stroke-linejoin:miter;stroke-miterlimit:2;stroke-dasharray:none;stroke-opacity:1"
       id="path332" /><path
       d="M 207,329.95 V 305.29"
       style="fill:none;stroke:#000000;stroke-width:1.25;stroke-linecap:round;stroke-linejoin:round;stroke-miterlimit:2;stroke-dasharray:none;stroke-opacity:1"
       id="path334" /><path
       d="m 211.49,306.19 -4.49,-4.49 -4.49,4.49 z"
       style="fill:#000000;fill-opacity:1;fill-rule:evenodd;stroke:none"
       id="path336" /><path
       d="M 207,265.7 V 236.35"
       style="fill:none;stroke:#000000;stroke-width:1.25;stroke-linecap:round;stroke-linejoin:round;stroke-miterlimit:2;stroke-dasharray:none;stroke-opacity:1"
       id="path338" /><path
       d="m 211.49,237.24 -4.49,-4.49 -4.49,4.49 z"
       style="fill:#000000;fill-opacity:1;fill-rule:evenodd;stroke:none"
       id="path340" /><path
       d="m 200.33,244.43 h 13.348 v 9.5999 H 200.33 Z"
       style="fill:#ffffff;fill-opacity:1;fill-rule:evenodd;stroke:none"
       id="path342" /><g
       id="g344"><g
         id="g346"
         clip-path="url(#clipPath350)"><text
           transform="matrix(1,0,0,-1,200.47,246.48)"
           style="font-variant:normal;font-weight:normal;font-size:7.8px;font-family:Calibri;-inkscape-font-specification:Calibri;writing-mode:lr-tb;fill:#000000;fill-opacity:1;fill-rule:nonzero;stroke:none"
           id="text354"><tspan
             x="0 5.3898001 8.9933996"
             y="0"
             sodipodi:role="line"
             id="tspan352">Neu</tspan></text></g></g><path
       d="m 207,196.75 v -23.4"
       style="fill:none;stroke:#000000;stroke-width:1.25;stroke-linecap:round;stroke-linejoin:round;stroke-miterlimit:2;stroke-dasharray:none;stroke-opacity:1"
       id="path356" /><path
       d="m 211.49,174.24 -4.49,-4.49 -4.49,4.49 z"
       style="fill:#000000;fill-opacity:1;fill-rule:evenodd;stroke:none"
       id="path358" /><path
       d="M 207,133.75 V 107.29"
       style="fill:none;stroke:#000000;stroke-width:1.25;stroke-linecap:round;stroke-linejoin:round;stroke-miterlimit:2;stroke-dasharray:none;stroke-opacity:1"
       id="path360" /><path
       d="m 211.49,108.19 -4.49,-4.49 -4.49,4.49 z"
       style="fill:#000000;fill-opacity:1;fill-rule:evenodd;stroke:none"
       id="path362" /><path
       d="m 200.33,113.93 h 13.348 v 9.5999 H 200.33 Z"
       style="fill:#ffffff;fill-opacity:1;fill-rule:evenodd;stroke:none"
       id="path364" /><g
       id="g366"><g
         id="g368"
         clip-path="url(#clipPath372)"><text
           transform="matrix(1,0,0,-1,200.47,115.85)"
           style="font-variant:normal;font-weight:normal;font-size:7.8px;font-family:Calibri;-inkscape-font-specification:Calibri;writing-mode:lr-tb;fill:#000000;fill-opacity:1;fill-rule:nonzero;stroke:none"
           id="text376"><tspan
             x="0 5.3898001 8.9933996"
             y="0"
             sodipodi:role="line"
             id="tspan374">Neu</tspan></text></g></g><path
       d="m 270,85.701 h 99 v 44.459"
       style="fill:none;stroke:#000000;stroke-width:1.25;stroke-linecap:round;stroke-linejoin:round;stroke-miterlimit:2;stroke-dasharray:none;stroke-opacity:1"
       id="path378" /><path
       d="m 364.51,129.26 4.49,4.49 4.49,-4.49 z"
       style="fill:#000000;fill-opacity:1;fill-rule:evenodd;stroke:none"
       id="path380" /><path
       d="m 225,283.7 h 77.41"
       style="fill:none;stroke:#000000;stroke-width:1.25;stroke-linecap:round;stroke-linejoin:round;stroke-miterlimit:2;stroke-dasharray:none;stroke-opacity:1"
       id="path382" /><path
       d="m 301.51,288.19 4.49,-4.49 -4.49,-4.49 z"
       style="fill:#000000;fill-opacity:1;fill-rule:evenodd;stroke:none"
       id="path384" /><path
       d="m 237.37,278.5 h 56.261 v 9.5999 H 237.37 Z"
       style="fill:#ffffff;fill-opacity:1;fill-rule:evenodd;stroke:none"
       id="path386" /><g
       id="g388"><g
         id="g390"
         clip-path="url(#clipPath394)"><text
           transform="matrix(1,0,0,-1,237.55,280.57)"
           style="font-variant:normal;font-weight:normal;font-size:7.8px;font-family:Calibri;-inkscape-font-specification:Calibri;writing-mode:lr-tb;fill:#000000;fill-opacity:1;fill-rule:nonzero;stroke:none"
           id="text398"><tspan
             x="0 4.1964002 8.3850002 11.388 14.3832 17.986799 22.1754 26.364 29.367001 33.555599 37.744202 40.7472 46.144798 50.333401 54.521999"
             y="0"
             sodipodi:role="line"
             id="tspan396">Bestandsauswahl</tspan></text></g></g><path
       d="m 225,151.75 h 77.41"
       style="fill:none;stroke:#000000;stroke-width:1.25;stroke-linecap:round;stroke-linejoin:round;stroke-miterlimit:2;stroke-dasharray:none;stroke-opacity:1"
       id="path400" /><path
       d="m 301.51,156.24 4.49,-4.49 -4.49,-4.49 z"
       style="fill:#000000;fill-opacity:1;fill-rule:evenodd;stroke:none"
       id="path402" /><path
       d="m 237.37,146.95 h 56.261 v 9.5999 H 237.37 Z"
       style="fill:#ffffff;fill-opacity:1;fill-rule:evenodd;stroke:none"
       id="path404" /><g
       id="g406"><g
         id="g408"
         clip-path="url(#clipPath412)"><text
           transform="matrix(1,0,0,-1,237.55,148.9)"
           style="font-variant:normal;font-weight:normal;font-size:7.8px;font-family:Calibri;-inkscape-font-specification:Calibri;writing-mode:lr-tb;fill:#000000;fill-opacity:1;fill-rule:nonzero;stroke:none"
           id="text416"><tspan
             x="0 4.1964002 8.3850002 11.388 14.3832 17.986799 22.1754 26.364 29.367001 33.555599 37.744202 40.7472 46.144798 50.333401 54.521999"
             y="0"
             sodipodi:role="line"
             id="tspan414">Bestandsauswahl</tspan></text></g></g><path
       d="m 315,133.75 h 108 c 4.97,0 9,4.03 9,9 v 18 c 0,4.98 -4.03,9 -9,9 H 315 c -4.97,0 -9,-4.02 -9,-9 v -18 c 0,-4.97 4.03,-9 9,-9 z"
       style="fill:#f2f2f2;fill-opacity:1;fill-rule:evenodd;stroke:none"
       id="path418" /><path
       d="m 315,133.75 h 108 c 4.97,0 9,4.03 9,9 v 18 c 0,4.98 -4.03,9 -9,9 H 315 c -4.97,0 -9,-4.02 -9,-9 v -18 c 0,-4.97 4.03,-9 9,-9 z"
       style="fill:none;stroke:#000000;stroke-width:1.25;stroke-linecap:butt;stroke-linejoin:miter;stroke-miterlimit:2;stroke-dasharray:none;stroke-opacity:1"
       id="path420" /><g
       id="g422"><g
         id="g424"
         clip-path="url(#clipPath428)"><text
           transform="matrix(1,0,0,-1,329.08,147.7)"
           style="font-variant:normal;font-weight:normal;font-size:12px;font-family:Calibri;-inkscape-font-specification:Calibri;writing-mode:lr-tb;fill:#000000;fill-opacity:1;fill-rule:nonzero;stroke:none"
           id="text432"><tspan
             x="0"
             y="0"
             id="tspan430">3</tspan></text></g></g><g
       id="g434"><g
         id="g436"
         clip-path="url(#clipPath440)"><text
           transform="matrix(1,0,0,-1,335.15,147.7)"
           style="font-variant:normal;font-weight:normal;font-size:12px;font-family:Calibri;-inkscape-font-specification:Calibri;writing-mode:lr-tb;fill:#000000;fill-opacity:1;fill-rule:nonzero;stroke:none"
           id="text444"><tspan
             x="0"
             y="0"
             id="tspan442">.</tspan></text></g></g><g
       id="g446"><g
         id="g448"
         clip-path="url(#clipPath452)"><text
           transform="matrix(1,0,0,-1,338.18,147.7)"
           style="font-variant:normal;font-weight:normal;font-size:12px;font-family:Calibri;-inkscape-font-specification:Calibri;writing-mode:lr-tb;fill:#000000;fill-opacity:1;fill-rule:nonzero;stroke:none"
           id="text456"><tspan
             x="0 6"
             y="0"
             sodipodi:role="line"
             id="tspan454">2 </tspan></text></g></g><g
       id="g458"><g
         id="g460"
         clip-path="url(#clipPath464)"><text
           transform="matrix(1,0,0,-1,346.97,147.7)"
           style="font-variant:normal;font-weight:normal;font-size:12px;font-family:Calibri;-inkscape-font-specification:Calibri;writing-mode:lr-tb;fill:#000000;fill-opacity:1;fill-rule:nonzero;stroke:none"
           id="text468"><tspan
             x="0 7.224 13.236 17.424 23.436001 25.836 28.823999 31.224001 37.835999 43.860001 50.472 56.495998"
             y="0"
             sodipodi:role="line"
             id="tspan466">Detail Kunde</tspan></text></g></g><path
       d="m 315,265.7 h 108 c 4.97,0 9,4.03 9,9 v 18 c 0,4.97 -4.03,9 -9,9 H 315 c -4.97,0 -9,-4.03 -9,-9 v -18 c 0,-4.97 4.03,-9 9,-9 z"
       style="fill:#f2f2f2;fill-opacity:1;fill-rule:evenodd;stroke:none"
       id="path470" /><path
       d="m 315,265.7 h 108 c 4.97,0 9,4.03 9,9 v 18 c 0,4.97 -4.03,9 -9,9 H 315 c -4.97,0 -9,-4.03 -9,-9 v -18 c 0,-4.97 4.03,-9 9,-9 z"
       style="fill:none;stroke:#000000;stroke-width:1.25;stroke-linecap:butt;stroke-linejoin:miter;stroke-miterlimit:2;stroke-dasharray:none;stroke-opacity:1"
       id="path472" /><g
       id="g474"><g
         id="g476"
         clip-path="url(#clipPath480)"><text
           transform="matrix(1,0,0,-1,323.38,279.78)"
           style="font-variant:normal;font-weight:normal;font-size:12px;font-family:Calibri;-inkscape-font-specification:Calibri;writing-mode:lr-tb;fill:#000000;fill-opacity:1;fill-rule:nonzero;stroke:none"
           id="text484"><tspan
             x="0"
             y="0"
             id="tspan482">2</tspan></text></g></g><g
       id="g486"><g
         id="g488"
         clip-path="url(#clipPath492)"><text
           transform="matrix(1,0,0,-1,329.48,279.78)"
           style="font-variant:normal;font-weight:normal;font-size:12px;font-family:Calibri;-inkscape-font-specification:Calibri;writing-mode:lr-tb;fill:#000000;fill-opacity:1;fill-rule:nonzero;stroke:none"
           id="text496"><tspan
             x="0"
             y="0"
             id="tspan494">.</tspan></text></g></g><g
       id="g498"><g
         id="g500"
         clip-path="url(#clipPath504)"><text
           transform="matrix(1,0,0,-1,332.5,279.78)"
           style="font-variant:normal;font-weight:normal;font-size:12px;font-family:Calibri;-inkscape-font-specification:Calibri;writing-mode:lr-tb;fill:#000000;fill-opacity:1;fill-rule:nonzero;stroke:none"
           id="text508"><tspan
             x="0 6"
             y="0"
             sodipodi:role="line"
             id="tspan506">2 </tspan></text></g></g><g
       id="g510"><g
         id="g512"
         clip-path="url(#clipPath516)"><text
           transform="matrix(1,0,0,-1,341.3,279.78)"
           style="font-variant:normal;font-weight:normal;font-size:12px;font-family:Calibri;-inkscape-font-specification:Calibri;writing-mode:lr-tb;fill:#000000;fill-opacity:1;fill-rule:nonzero;stroke:none"
           id="text520"><tspan
             x="0 7.1999998 13.176 17.388 23.375999 25.775999 28.764 31.164 37.751999 44.34 49.139999 55.728001 61.728001 68.316002"
             y="0"
             sodipodi:role="line"
             id="tspan518">Detail Buchung</tspan></text></g></g><path
       d="m 481.5,265.7 18,18 -18,18 -18,-18 z"
       style="fill:#f2f2f2;fill-opacity:1;fill-rule:evenodd;stroke:none"
       id="path522" /><path
       d="m 481.5,265.7 18,18 -18,18 -18,-18 z"
       style="fill:none;stroke:#000000;stroke-width:1.25;stroke-linecap:butt;stroke-linejoin:miter;stroke-miterlimit:2;stroke-dasharray:none;stroke-opacity:1"
       id="path524" /><path
       d="m 432,283.7 h 27.91"
       style="fill:none;stroke:#000000;stroke-width:1.25;stroke-linecap:round;stroke-linejoin:round;stroke-miterlimit:2;stroke-dasharray:none;stroke-opacity:1"
       id="path526" /><path
       d="m 459.01,288.19 4.49,-4.49 -4.49,-4.49 z"
       style="fill:#000000;fill-opacity:1;fill-rule:evenodd;stroke:none"
       id="path528" /><path
       d="m 481.5,301.7 v 46.25 H 273.59"
       style="fill:none;stroke:#000000;stroke-width:1.25;stroke-linecap:round;stroke-linejoin:round;stroke-miterlimit:2;stroke-dasharray:none;stroke-opacity:1"
       id="path530" /><path
       d="m 274.49,343.46 -4.49,4.49 4.49,4.49 z"
       style="fill:#000000;fill-opacity:1;fill-rule:evenodd;stroke:none"
       id="path532" /><path
       d="m 463.66,323.5 h 35.687 v 9.5999 H 463.66 Z"
       style="fill:#ffffff;fill-opacity:1;fill-rule:evenodd;stroke:none"
       id="path534" /><g
       id="g536"><g
         id="g538"
         clip-path="url(#clipPath542)"><text
           transform="matrix(1,0,0,-1,464,325.63)"
           style="font-variant:normal;font-weight:normal;font-size:7.825px;font-family:Calibri;-inkscape-font-specification:Calibri;writing-mode:lr-tb;fill:#000000;fill-opacity:1;fill-rule:nonzero;stroke:none"
           id="text546"><tspan
             x="0 4.1942 8.3884001 11.9879 14.97705 19.171249 22.77075 24.570499 27.55965 31.159149"
             y="0"
             sodipodi:role="line"
             id="tspan544">bearbeiten</tspan></text></g></g><path
       d="m 481.5,133.75 18,18 -18,18 -18,-18 z"
       style="fill:#f2f2f2;fill-opacity:1;fill-rule:evenodd;stroke:none"
       id="path548" /><path
       d="m 481.5,133.75 18,18 -18,18 -18,-18 z"
       style="fill:none;stroke:#000000;stroke-width:1.25;stroke-linecap:butt;stroke-linejoin:miter;stroke-miterlimit:2;stroke-dasharray:none;stroke-opacity:1"
       id="path550" /><path
       d="m 432,151.75 h 27.91"
       style="fill:none;stroke:#000000;stroke-width:1.25;stroke-linecap:round;stroke-linejoin:round;stroke-miterlimit:2;stroke-dasharray:none;stroke-opacity:1"
       id="path552" /><path
       d="m 459.01,156.24 4.49,-4.49 -4.49,-4.49 z"
       style="fill:#000000;fill-opacity:1;fill-rule:evenodd;stroke:none"
       id="path554" /><path
       d="m 481.5,169.75 v 45 H 273.59"
       style="fill:none;stroke:#000000;stroke-width:1.25;stroke-linecap:round;stroke-linejoin:round;stroke-miterlimit:2;stroke-dasharray:none;stroke-opacity:1"
       id="path556" /><path
       d="m 274.49,210.26 -4.49,4.49 4.49,4.49 z"
       style="fill:#000000;fill-opacity:1;fill-rule:evenodd;stroke:none"
       id="path558" /><path
       d="m 463.66,192.28 h 35.687 v 9.5999 H 463.66 Z"
       style="fill:#ffffff;fill-opacity:1;fill-rule:evenodd;stroke:none"
       id="path560" /><g
       id="g562"><g
         id="g564"
         clip-path="url(#clipPath568)"><text
           transform="matrix(1,0,0,-1,464,194.28)"
           style="font-variant:normal;font-weight:normal;font-size:7.825px;font-family:Calibri;-inkscape-font-specification:Calibri;writing-mode:lr-tb;fill:#000000;fill-opacity:1;fill-rule:nonzero;stroke:none"
           id="text572"><tspan
             x="0 4.1942 8.3884001 11.9879 14.97705 19.171249 22.77075 24.570499 27.55965 31.159149"
             y="0"
             sodipodi:role="line"
             id="tspan570">bearbeiten</tspan></text></g></g><path
       d="M 481.5,133.75 V 107.69"
       style="fill:none;stroke:#000000;stroke-width:1.25;stroke-linecap:round;stroke-linejoin:round;stroke-miterlimit:2;stroke-dasharray:none;stroke-opacity:1"
       id="path574" /><path
       d="m 485.99,108.59 -4.49,-4.49 -4.49,4.49 z"
       style="fill:#000000;fill-opacity:1;fill-rule:evenodd;stroke:none"
       id="path576" /><path
       d="m 460.43,116.9 h 42.136 v 9.5999 H 460.43 Z"
       style="fill:#ffffff;fill-opacity:1;fill-rule:evenodd;stroke:none"
       id="path578" /><g
       id="g580"><g
         id="g582"
         clip-path="url(#clipPath586)"><text
           transform="matrix(1,0,0,-1,460.78,118.83)"
           style="font-variant:normal;font-weight:normal;font-size:7.8px;font-family:Calibri;-inkscape-font-specification:Calibri;writing-mode:lr-tb;fill:#000000;fill-opacity:1;fill-rule:nonzero;stroke:none"
           id="text590"><tspan
             x="0 4.1886001 8.3772001 12.5658 14.9682 19.156799 23.3454 27.534 34.125 37.7286"
             y="0"
             sodipodi:role="line"
             id="tspan588">übernehmen</tspan></text></g></g><path
       d="m 427.5,67.299 h 108 c 4.97,0 9,4.029 9,9 v 18.804 c 0,4.967 -4.03,8.997 -9,8.997 h -108 c -4.97,0 -9,-4.03 -9,-8.997 V 76.299 c 0,-4.971 4.03,-9 9,-9 z"
       style="fill:#f2f2f2;fill-opacity:1;fill-rule:evenodd;stroke:none"
       id="path592" /><path
       d="m 427.5,67.299 h 108 c 4.97,0 9,4.029 9,9 v 18.804 c 0,4.967 -4.03,8.997 -9,8.997 h -108 c -4.97,0 -9,-4.03 -9,-8.997 V 76.299 c 0,-4.971 4.03,-9 9,-9 z"
       style="fill:none;stroke:#000000;stroke-width:1.25;stroke-linecap:butt;stroke-linejoin:miter;stroke-miterlimit:2;stroke-dasharray:none;stroke-opacity:1"
       id="path594" /><g
       id="g596"><g
         id="g598"
         clip-path="url(#clipPath602)"><text
           transform="matrix(1,0,0,-1,435.38,88.8)"
           style="font-variant:normal;font-weight:normal;font-size:12.025px;font-family:Calibri;-inkscape-font-specification:Calibri;writing-mode:lr-tb;fill:#000000;fill-opacity:1;fill-rule:nonzero;stroke:none"
           id="text606"><tspan
             x="0"
             y="0"
             id="tspan604">2</tspan></text></g></g><g
       id="g608"><g
         id="g610"
         clip-path="url(#clipPath614)"><text
           transform="matrix(1,0,0,-1,441.47,88.8)"
           style="font-variant:normal;font-weight:normal;font-size:12.025px;font-family:Calibri;-inkscape-font-specification:Calibri;writing-mode:lr-tb;fill:#000000;fill-opacity:1;fill-rule:nonzero;stroke:none"
           id="text618"><tspan
             x="0"
             y="0"
             id="tspan616">.</tspan></text></g></g><g
       id="g620"><g
         id="g622"
         clip-path="url(#clipPath626)"><text
           transform="matrix(1,0,0,-1,444.5,88.8)"
           style="font-variant:normal;font-weight:normal;font-size:12.025px;font-family:Calibri;-inkscape-font-specification:Calibri;writing-mode:lr-tb;fill:#000000;fill-opacity:1;fill-rule:nonzero;stroke:none"
           id="text630"><tspan
             x="0 5.9999752"
             y="0"
             sodipodi:role="line"
             id="tspan628">1 </tspan></text></g></g><g
       id="g632"><g
         id="g634"
         clip-path="url(#clipPath638)"><text
           transform="matrix(1,0,0,-1,453.3,88.8)"
           style="font-variant:normal;font-weight:normal;font-size:12.025px;font-family:Calibri;-inkscape-font-specification:Calibri;writing-mode:lr-tb;fill:#000000;fill-opacity:1;fill-rule:nonzero;stroke:none"
           id="text642"><tspan
             x="0 5.9884501 10.185175 13.792675 19.1919 23.97785 28.7638 35.3535 41.353973 46.753201 49.735401 55.72385 58.718075 64.718552 70.707001 74.903725"
             y="0"
             sodipodi:role="line"
             id="tspan640">Erfassung einer </tspan></text></g></g><g
       id="g644"><g
         id="g646"
         clip-path="url(#clipPath650)"><text
           transform="matrix(1,0,0,-1,460.6,74.375)"
           style="font-variant:normal;font-weight:normal;font-size:12px;font-family:Calibri;-inkscape-font-specification:Calibri;writing-mode:lr-tb;fill:#000000;fill-opacity:1;fill-rule:nonzero;stroke:none"
           id="text654"><tspan
             x="0 6.612 12.636 18.048 24.072001 30.684 36.708"
             y="0"
             sodipodi:role="line"
             id="tspan652">Buchung</tspan></text></g></g><path
       d="m 544.5,85.701 h 12 V 239.6 H 369 v 22.51"
       style="fill:none;stroke:#000000;stroke-width:1.25;stroke-linecap:round;stroke-linejoin:round;stroke-miterlimit:2;stroke-dasharray:none;stroke-opacity:1"
       id="path656" /><path
       d="m 364.51,261.21 4.49,4.49 4.49,-4.49 z"
       style="fill:#000000;fill-opacity:1;fill-rule:evenodd;stroke:none"
       id="path658" /><path
       d="m 481.5,265.7 h 75 v 82.25 H 273.59"
       style="fill:none;stroke:#000000;stroke-width:1.25;stroke-linecap:round;stroke-linejoin:round;stroke-miterlimit:2;stroke-dasharray:none;stroke-opacity:1"
       id="path660" /><path
       d="m 274.49,343.46 -4.49,4.49 4.49,4.49 z"
       style="fill:#000000;fill-opacity:1;fill-rule:evenodd;stroke:none"
       id="path662" /><path
       d="m 536.93,294.25 h 42.136 v 9.5999 H 536.93 Z"
       style="fill:#ffffff;fill-opacity:1;fill-rule:evenodd;stroke:none"
       id="path664" /><g
       id="g666"><g
         id="g668"
         clip-path="url(#clipPath672)"><text
           transform="matrix(1,0,0,-1,537.33,296.35)"
           style="font-variant:normal;font-weight:normal;font-size:7.825px;font-family:Calibri;-inkscape-font-specification:Calibri;writing-mode:lr-tb;fill:#000000;fill-opacity:1;fill-rule:nonzero;stroke:none"
           id="text676"><tspan
             x="0 4.2176752 8.4353504 12.653025 15.0553 19.272976 23.49065 27.708324 34.328274 37.951248"
             y="0"
             sodipodi:role="line"
             id="tspan674">übernehmen</tspan></text></g></g><path
       d="M 189,283.7 H 129.59"
       style="fill:none;stroke:#000000;stroke-width:1.25;stroke-linecap:round;stroke-linejoin:round;stroke-miterlimit:2;stroke-dasharray:none;stroke-opacity:1"
       id="path678" /><path
       d="m 130.49,279.21 -4.49,4.49 4.49,4.49 z"
       style="fill:#000000;fill-opacity:1;fill-rule:evenodd;stroke:none"
       id="path680" /><path
       d="m 499.5,283.7 h 21.3 v 64.25 H 273.59"
       style="fill:none;stroke:#000000;stroke-width:1.25;stroke-linecap:round;stroke-linejoin:round;stroke-miterlimit:2;stroke-dasharray:none;stroke-opacity:1"
       id="path682" /><path
       d="m 274.49,343.46 -4.49,4.49 4.49,4.49 z"
       style="fill:#000000;fill-opacity:1;fill-rule:evenodd;stroke:none"
       id="path684" /><path
       d="m 505.1,310 h 33.808 v 9.5999 H 505.1 Z"
       style="fill:#ffffff;fill-opacity:1;fill-rule:evenodd;stroke:none"
       id="path686" /><g
       id="g688"><g
         id="g690"
         clip-path="url(#clipPath694)"><text
           transform="matrix(1,0,0,-1,505.47,312.1)"
           style="font-variant:normal;font-weight:normal;font-size:7.8px;font-family:Calibri;-inkscape-font-specification:Calibri;writing-mode:lr-tb;fill:#000000;fill-opacity:1;fill-rule:nonzero;stroke:none"
           id="text698"><tspan
             x="0 3.003 5.9981999 10.1868 12.5892 16.7778 18.5718 22.7682 25.763399 29.367001"
             y="0"
             sodipodi:role="line"
             id="tspan696">stornieren</tspan></text></g></g><path
       d="m 499.5,151.75 h 15.75 v 63 H 273.59"
       style="fill:none;stroke:#000000;stroke-width:1.25;stroke-linecap:round;stroke-linejoin:round;stroke-miterlimit:2;stroke-dasharray:none;stroke-opacity:1"
       id="path700" /><path
       d="m 274.49,210.26 -4.49,4.49 4.49,4.49 z"
       style="fill:#000000;fill-opacity:1;fill-rule:evenodd;stroke:none"
       id="path702" /><path
       d="m 501.93,182.15 h 24.953 v 9.5999 H 501.93 Z"
       style="fill:#ffffff;fill-opacity:1;fill-rule:evenodd;stroke:none"
       id="path704" /><g
       id="g706"><g
         id="g708"
         clip-path="url(#clipPath712)"><text
           transform="matrix(1,0,0,-1,502.3,184.13)"
           style="font-variant:normal;font-weight:normal;font-size:7.8px;font-family:Calibri;-inkscape-font-specification:Calibri;writing-mode:lr-tb;fill:#000000;fill-opacity:1;fill-rule:nonzero;stroke:none"
           id="text716"><tspan
             x="0 1.794 5.9903998 8.9933996 12.5892 16.7778 20.9664"
             y="0"
             sodipodi:role="line"
             id="tspan714">löschen</tspan></text></g></g><g
       id="g718"><g
         id="g720"
         clip-path="url(#clipPath724)"><text
           transform="matrix(1,0,0,-1,22.025,580.38)"
           style="font-variant:normal;font-weight:normal;font-size:12.025px;font-family:Calibri;-inkscape-font-specification:Calibri;writing-mode:lr-tb;fill:#000000;fill-opacity:1;fill-rule:nonzero;stroke:none"
           id="text728"><tspan
             x="0 10.1972 16.18565 20.382376 25.781601 29.377075 35.365524 41.955227 46.151951 51.551174 56.938374 62.93885 69.528549 75.529022 82.118729 87.517952"
             y="0"
             sodipodi:role="line"
             id="tspan726">Marktabrechnung </tspan></text></g></g><g
       id="g730"><g
         id="g732"
         clip-path="url(#clipPath736)"><text
           transform="matrix(1,0,0,-1,112.62,580.38)"
           style="font-variant:normal;font-weight:normal;font-size:12.025px;font-family:Calibri;-inkscape-font-specification:Calibri;writing-mode:lr-tb;fill:#000000;fill-opacity:1;fill-rule:nonzero;stroke:none"
           id="text740"><tspan
             x="0 5.4004998"
             y="0"
             sodipodi:role="line"
             id="tspan738">| </tspan></text></g></g><g
       id="g742"><g
         id="g744"
         clip-path="url(#clipPath748)"><text
           transform="matrix(1,0,0,-1,120.85,580.38)"
           style="font-variant:normal;font-weight:normal;font-size:12.025px;font-family:Calibri;-inkscape-font-specification:Calibri;writing-mode:lr-tb;fill:#000000;fill-opacity:1;fill-rule:nonzero;stroke:none"
           id="text752"><tspan
             x="0 6.0004749 10.1972 16.7869 22.186125 26.382851 32.3713 41.979275 51.58725 57.022549 63.612251 66.01725 72.005699 78.595398 82.190872 84.595879"
             y="0"
             sodipodi:role="line"
             id="tspan750">Programmablauf v</tspan></text></g></g><g
       id="g754"><g
         id="g756"
         clip-path="url(#clipPath760)"><text
           transform="matrix(1,0,0,-1,211.05,580.38)"
           style="font-variant:normal;font-weight:normal;font-size:12.025px;font-family:Calibri;-inkscape-font-specification:Calibri;writing-mode:lr-tb;fill:#000000;fill-opacity:1;fill-rule:nonzero;stroke:none"
           id="text764"><tspan
             x="0"
             y="0"
             id="tspan762">.</tspan></text></g></g><g
       id="g766"><g
         id="g768"
         clip-path="url(#clipPath772)"><text
           transform="matrix(1,0,0,-1,214.08,580.38)"
           style="font-variant:normal;font-weight:normal;font-size:12.025px;font-family:Calibri;-inkscape-font-specification:Calibri;writing-mode:lr-tb;fill:#000000;fill-opacity:1;fill-rule:nonzero;stroke:none"
           id="text776"><tspan
             x="0 5.9999752"
             y="0"
             sodipodi:role="line"
             id="tspan774">02</tspan></text></g></g></g></svg>
